{
  "name": "Vladimir Vujosevic",
  "info": {
    "label": "Software Engineer",
    "image": "",
    "brief": "Experienced software engineer with a vast history of working in the information technology industry. Before moving to Amsterdam, Netherlands in 2016, Vladimir worked for various IT companies and startups based in Belgrade, Serbia usually as a full time software developer. While his work focuses on web front-end architecture and scalability, mostly optimizing web applications for rich user experience, his non-work interests and activities range widely, everything from extreme sports to table tennis."
  },
  "contact": {
    "email": "vladimirvuj@gmail.com",
    "phone": "+31 (0)62 557-8850"
  },
  "meta": {
    "format": "FRESH@^1.0.0-beta",
    "modified": "2019-02-05T16:05:50.216Z"
  },
  "location": {
    "city": "Diemen",
    "region": "Nord-Holland",
    "country": "NL",
    "code": "1112NZ",
    "address": "Kruidenhof 129"
  },
  "employment": {
    "history": [
      {
        "position": "Senior Software Engineer",
        "employer": "Weeronline and Zoover",
        "summary": "Weeronline is a dutch weather and forecasting service with more than 18 years operating on the market, currently relaunched on a modern environment, running on Kubernetes in Google Cloud™",
        "current": true,
        "start": "2016-10-01",
        "end": "",
        "url": "https://www.weeronline.nl",
        "keywords": [],
        "highlights": [
          "Building SSR responsive React application.",
          "Building and maintaining NodeJS REST API",
          "Helping with a migration strategy of legacy platforms.",
          "Maintaining Jenkins instances.",
          "Troublshooting and maintaining Kubernetes cluster."
        ]
      },
      {
        "position": "Senior Front-end Developer ",
        "employer": "Humanity - Shiftplanning",
        "summary": "Humanity is a workforce management startup from San Francisco, California launched in 2009 to solve employee shift scheduling problems.",
        "start": "2012-12-01",
        "end": "2016-07-01",
        "url": "https://www.humanity.com/",
        "keywords": [],
        "highlights": [
          "Building large scale SPA JavaScript application based on a CanJS framework.",
          "Agile / Scrum methodology with cross functional team setup"
        ]
      },
      {
        "position": "Senior Front-end Developer",
        "employer": "Computer Rock (ex. Spoiled Milk)",
        "summary": "Computer Rock is a web agency focused on product and service design by consulting companies in business modelling, processes and product/service development",
        "start": "2011-12-01",
        "end": "2012-12-01",
        "url": "https://computerrock.com/",
        "keywords": [],
        "highlights": [
          "Building and maintaining a vast set of web applications ranging from SPA to CMS based software and hybrid mobile applications.",
          "Maintaining Rails application, in-house time tracking startup project."
        ]
      },
      {
        "position": "Front-end Developer",
        "employer": "Complus Visual Communication",
        "summary": "Complus is a consulting company and web agency that offers high quality IT solutions, mostly focused on Serbian and Italian markets.",
        "start": "2008-07-01",
        "end": "2011-11-01",
        "url": "http://www.complus.rs/",
        "keywords": [],
        "highlights": [
          "Building Front-end for multiple applications from small to enterprise scale based on Zend PHP framework."
        ]
      }
    ]
  },
  "education": {
    "level": "",
    "history": [
      {
        "institution": "Belgrade Business School",
        "start": "2001-06-01",
        "end": "2005-01-01",
        "curriculum": [
          "DB1101 - Basic SQL",
          "CS2011 - Java Introduction",
          "C2011 - C Introduction",
          "COB3011 - COBOL Introduction"
        ],
        "summary": "",
        "area": "Information Technology",
        "studyType": "Bachelor"
      },
      {
        "institution": "XI Belgrade Gymnasium",
        "start": "1997-06-01",
        "end": "2001-01-01",
        "summary": "",
        "area": "Nature and Math sciences"
      }
    ]
  },
  "skills": {
    "sets": [
      {
        "name": "Software Development",
        "skills": [
          "JavaScript",
          "NodeJS",
          "MongoDB",
          "HTML5",
          "CSS3",
          "Scala",
          "PHP"
        ]
      },
      {
        "name": "Frameworks",
        "skills": [
          "React",
          "React Native",
          "CanJS",
          "BackboneJS"
        ]
      },
      {
        "name": "CI",
        "skills": [
          "Travis",
          "Jenkins",
          "Circle-CI",
          "CodeCov"
        ]
      },
      {
        "name": "Environments",
        "skills": [
          "Kubernetes",
          "Google Cloud",
          "Unix",
          "Windows"
        ]
      }
    ]
  },
  "social": [
    {
      "label": "Github",
      "network": "Github",
      "url": "https://github.com/frontmesh",
      "user": "frontmesh"
    }
  ],
  "interests": [
    {
      "name": "Sports",
      "keywords": [
        "Table Tennis",
        "Snowboarding",
        "Swimming",
        "Outdoors"
      ]
    }
  ],
  "languages": [
    {
      "language": "Serbian",
      "fluency": "Native speaker"
    },
    {
      "language": "English",
      "fluency": "Advanced"
    }
  ]
}